[
    {
      "titulo": "Cien años de soledad",
      "autor": "Gabriel García Márquez",
      "genero": "Realismo mágico",
      "año": 1967,
      "editorial": "Círculo de Lectores",
      "imagen": "https://panamericana.vtexassets.com/arquivos/ids/348536-1200-auto?v=637184983986530000&width=1200&height=auto&aspect=true"
    },
    {
      "titulo": "La sombra del viento",
      "autor": "Carlos Ruiz Zafón",
      "genero": "Novela histórica",
      "año": 2001,
      "editorial": "Planeta",
      "imagen": "https://imagessl5.casadellibro.com/a/l/t7/45/9788408043645.jpg"
    },
    {
      "titulo": "El nombre del viento",
      "autor": "Patrick Rothfuss",
      "genero": "Fantasía",
      "año": 2007,
      "editorial": "Debolsillo",
      "imagen": "http://lahistoriadekvothe.com/wp-content/uploads/2011/07/book-1.png"
    },
    {
      "titulo": "Rayuela",
      "autor": "Julio Cortázar",
      "genero": "Realismo mágico",
      "año": 1963,
      "editorial": "Alfaguara",
      "imagen": "https://panamericana.vtexassets.com/arquivos/ids/202073-1200-auto?v=636294352370030000&width=1200&height=auto&aspect=true"
    },
    {
      "titulo": "El alquimista",
      "autor": "Paulo Coelho",
      "genero": "Novela espiritual",
      "año": 1988,
      "editorial": "HarperCollins",
      "imagen": "https://panamericana.vtexassets.com/arquivos/ids/432128-1200-auto?v=637829735699930000&width=1200&height=auto&aspect=true"
    },
    {
      "titulo": "La ciudad de las bestias",
      "autor": "Isabel Allende",
      "genero": "Novela de aventuras",
      "año": 2002,
      "editorial": "Rayo",
      "imagen": "https://librerialerner.vteximg.com.br/arquivos/ids/362094-1000-1000/la-ciudad-de-las-bestias-2-9789588611785.jpg?v=637983476159870000"
    },
    {
      "titulo": "Memorias de mis putas tristes",
      "autor": "Gabriel García Márquez",
      "genero": "Ficción erótica",
      "año": 2004,
      "editorial": "Alfaguara",
      "imagen": "https://librerialerner.vteximg.com.br/arquivos/ids/386213-1000-1000/memorias-de-mis-putas-tristes.jpg?v=637363288643800000"
    },
    {
      "titulo": "El psicoanalista",
      "autor": "John Katzenbach",
      "genero": "Novela negra",
      "año": "1997",
      "editorial": "Ediciones B",
      "imagen": "https://panamericana.vtexassets.com/arquivos/ids/282196-1200-auto?v=636505196847400000&width=1200&height=auto&aspect=true"
      },
      {
      "titulo": "Crónica de una muerte anunciada",
      "autor": "Gabriel García Márquez",
      "genero": "Realismo mágico",
      "año": 1981,
      "editorial": "Literatura Random House",
      "imagen": "https://images.cdn2.buscalibre.com/fit-in/360x360/30/2e/302ec58225bc7691ec36ac3bf1697efc.jpg"
      },
      {
      "titulo": "La ladrona de libros",
      "autor": "Markus Zusak",
      "genero": "Drama",
      "año": 2005,
      "editorial": "Debolsillo",
      "imagen": "https://panamericana.vtexassets.com/arquivos/ids/179839-1200-auto?v=636209748873930000&width=1200&height=auto&aspect=true"
      },
      {
      "titulo": "El amor en los tiempos del cólera",
      "autor": "Gabriel García Márquez",
      "genero": "Realismo mágico",
      "año": 1985,
      "editorial": "Vintage Español",
      "imagen": "https://panamericana.vtexassets.com/arquivos/ids/180118-1200-auto?v=636209752743830000&width=1200&height=auto&aspect=true"
      },
      {
      "titulo": "El código Da Vinci",
      "autor": "Dan Brown",
      "genero": "Misterio",
      "año": 2003,
      "editorial": "Planeta",
      "imagen": "https://libropolis.com.co/image/cache/catalog/portadas/El%20código%20Da%20Vinci%20278990-550x550h.jpg"
      },
      {
      "titulo": "La casa de los espíritus",
      "autor": "Isabel Allende",
      "genero": "Realismo mágico",
      "año": 1982,
      "editorial": "Plaza & Janés",
      "imagen": "https://panamericana.vtexassets.com/arquivos/ids/331121-1200-auto?v=636991634152470000&width=1200&height=auto&aspect=true"
      },
      {
      "titulo": "1984",
      "autor": "George Orwell",
      "genero": "Ciencia ficción",
      "año": 1949,
      "editorial": "Debolsillo",
      "imagen": "https://www.mentesliberadas.com/wp-content/uploads/2018/06/george-orwell-1984.jpg"
      },
      {
      "titulo": "Pedro Páramo",
      "autor": "Juan Rulfo",
      "genero": "Realismo mágico",
      "año": 1955,
      "editorial": "Fondo de Cultura Económica",
      "imagen": "https://panamericana.vtexassets.com/arquivos/ids/484519-1200-auto?v=638129262593600000&width=1200&height=auto&aspect=true"
      },
      {
      "titulo": "La tregua",
      "autor": "Mario Benedetti",
      "genero": "Ficción",
      "año": 1960,
      "editorial": "Seix Barral",
      "imagen": "https://panamericana.vtexassets.com/arquivos/ids/180180-1200-auto?v=636209753577000000&width=1200&height=auto&aspect=true"
    },
    {
    "titulo": "La ciudad y los perros",
    "autor": "Mario Vargas Llosa",
    "genero": "Realismo",
    "año": 1963,
    "editorial": "Alfaguara",
    "imagen": "https://letras.rae.es/169-large_default/la-ciudad-y-los-perros.jpg"
    },
    {
    "titulo": "Rayuela",
    "autor": "Julio Cortázar",
    "genero": "Ficción",
    "año": 1963,
    "editorial": "Alfaguara",
    "imagen": "https://panamericana.vtexassets.com/arquivos/ids/202073-1200-auto?v=636294352370030000&width=1200&height=auto&aspect=true"
    },
    {
    "titulo": "Cien años de soledad",
    "autor": "Gabriel García Márquez",
    "genero": "Realismo mágico",
    "año": 1967,
    "editorial": "Círculo de Lectores",
    "imagen": "https://panamericana.vtexassets.com/arquivos/ids/348536-1200-auto?v=637184983986530000&width=1200&height=auto&aspect=true"
    },
    {
    "titulo": "La insoportable levedad del ser",
    "autor": "Milan Kundera",
    "genero": "Ficción",
    "año": 1984,
    "editorial": "Tusquets Editores",
    "imagen": "https://panamericana.vtexassets.com/arquivos/ids/175052-1200-auto?v=636209557945300000&width=1200&height=auto&aspect=true"
    },
    {
    "titulo": "El señor de los anillos",
    "autor": "J.R.R. Tolkien",
    "genero": "Fantasía",
    "año": 1954,
    "editorial": "Minotauro",
    "imagen": "https://http2.mlstatic.com/D_NQ_NP_903976-MLM47095375588_082021-O.webp"
    },
    {
    "titulo": "El perfume",
    "autor": "Patrick Süskind",
    "genero": "Ficción",
    "año": 1985,
    "editorial": "Ediciones Siruela",
    "imagen": "https://panamericana.vtexassets.com/arquivos/ids/174972-1200-auto?v=636209556933670000&width=1200&height=auto&aspect=true"
    },
    {
    "titulo": "Los pilares de la Tierra",
    "autor": "Ken Follett",
    "genero": "Novela histórica",
    "año": 1989,
    "editorial": "Debolsillo",
    "imagen": "https://m.media-amazon.com/images/I/81e7ZQZ-IuL._SY445_.jpg"
    }
]